<svg width="256" height="256" viewBox="0 0 256 256" fill="none" xmlns="http://www.w3.org/2000/svg">
<path d="M128 20C106.64 20 85.7589 26.3341 67.9984 38.2013C50.2379 50.0685 36.3953 66.9358 28.221 86.6702C20.0467 106.405 17.908 128.12 22.0752 149.07C26.2424 170.02 36.5284 189.263 51.6325 204.368C66.7365 219.472 85.9803 229.758 106.93 233.925C127.88 238.092 149.595 235.953 169.33 227.779C189.064 219.605 205.932 205.762 217.799 188.002C229.666 170.241 236 149.36 236 128C235.974 99.3647 224.586 71.9099 204.338 51.6617C184.09 31.4135 156.635 20.0265 128 20ZM128 212C111.386 212 95.1458 207.073 81.3321 197.843C67.5184 188.613 56.7519 175.494 50.3941 160.145C44.0364 144.796 42.3729 127.907 45.614 111.612C48.8552 95.318 56.8554 80.3506 68.603 68.603C80.3506 56.8554 95.318 48.8552 111.612 45.614C127.907 42.3729 144.796 44.0364 160.145 50.3941C175.494 56.7519 188.613 67.5184 197.843 81.3321C207.073 95.1458 212 111.386 212 128C211.974 150.27 203.115 171.62 187.368 187.368C171.62 203.115 150.27 211.974 128 212V212ZM76 108C76 104.835 76.9384 101.742 78.6965 99.1109C80.4546 96.4797 82.9534 94.4289 85.8771 93.2179C88.8007 92.0069 92.0177 91.6901 95.1214 92.3074C98.2251 92.9248 101.076 94.4487 103.314 96.6863C105.551 98.9239 107.075 101.775 107.693 104.879C108.31 107.982 107.993 111.199 106.782 114.123C105.571 117.047 103.52 119.545 100.889 121.304C98.2579 123.062 95.1645 124 92 124C87.7565 124 83.6869 122.314 80.6863 119.314C77.6857 116.313 76 112.243 76 108ZM180 108C180 111.165 179.062 114.258 177.304 116.889C175.545 119.52 173.047 121.571 170.123 122.782C167.199 123.993 163.982 124.31 160.879 123.693C157.775 123.075 154.924 121.551 152.686 119.314C150.449 117.076 148.925 114.225 148.307 111.121C147.69 108.018 148.007 104.801 149.218 101.877C150.429 98.9534 152.48 96.4546 155.111 94.6965C157.742 92.9384 160.835 92 164 92C168.243 92 172.313 93.6857 175.314 96.6863C178.314 99.6869 180 103.757 180 108ZM174.6 162.2C175.705 163.407 176.551 164.826 177.087 166.372C177.623 167.917 177.837 169.556 177.716 171.188C177.596 172.819 177.143 174.409 176.386 175.859C175.628 177.309 174.582 178.588 173.312 179.62C172.042 180.651 170.575 181.411 169 181.854C167.426 182.297 165.777 182.414 164.155 182.197C162.534 181.98 160.974 181.433 159.572 180.591C158.169 179.749 156.954 178.629 156 177.3C152.615 173.14 148.345 169.787 143.502 167.484C138.659 165.181 133.363 163.986 128 163.986C122.637 163.986 117.341 165.181 112.498 167.484C107.655 169.787 103.385 173.14 100 177.3C99.0462 178.629 97.8307 179.749 96.4282 180.591C95.0257 181.433 93.4659 181.98 91.8445 182.197C90.2231 182.414 88.5745 182.297 86.9998 181.854C85.4251 181.411 83.9577 180.651 82.6877 179.62C81.4176 178.588 80.3718 177.309 79.6145 175.859C78.8571 174.409 78.4042 172.819 78.2836 171.188C78.1631 169.556 78.3773 167.917 78.9132 166.372C79.4491 164.826 80.2954 163.407 81.4 162.2C87.0254 155.264 94.1281 149.671 102.19 145.83C110.252 141.988 119.07 139.995 128 139.995C136.93 139.995 145.748 141.988 153.81 145.83C161.872 149.671 168.975 155.264 174.6 162.2Z" fill="#BDBDBD"/>
</svg>

