<svg width="36" height="36" viewBox="0 0 36 36" fill="none" xmlns="http://www.w3.org/2000/svg">
<path d="M18.0001 30.0001C21.1827 30.0001 24.2349 28.7358 26.4853 26.4854C28.7358 24.235 30.0001 21.1827 30.0001 18.0001C30.0001 14.8175 28.7358 11.7653 26.4853 9.51484C24.2349 7.2644 21.1827 6.00012 18.0001 6.00012C14.8175 6.00012 11.7652 7.2644 9.51478 9.51484C7.26434 11.7653 6.00006 14.8175 6.00006 18.0001C6.00006 21.1827 7.26434 24.235 9.51478 26.4854C11.7652 28.7358 14.8175 30.0001 18.0001 30.0001V30.0001ZM18.0001 33.0001C9.71556 33.0001 3.00006 26.2846 3.00006 18.0001C3.00006 9.71562 9.71556 3.00012 18.0001 3.00012C26.2846 3.00012 33.0001 9.71562 33.0001 18.0001C33.0001 26.2846 26.2846 33.0001 18.0001 33.0001ZM13.3351 19.7551L9.58806 18.5866C8.77806 18.3391 8.77356 17.7811 9.76956 17.3806L24.3691 11.7406C25.2166 11.3956 25.6966 11.8321 25.4221 12.9256L22.9366 24.6556C22.7626 25.4911 22.2601 25.6906 21.5626 25.3051L17.7361 22.4731L15.9526 24.1951C15.7696 24.3721 15.6211 24.5236 15.3391 24.5611C15.0586 24.6001 14.8276 24.5161 14.6581 24.0511L13.3531 19.7446L13.3351 19.7566V19.7551Z" fill="#858585"/>
</svg>
